[
    {
        "model": "models.Orientacao",
        "pk": 1,
        "fields": {
            "id": 1,
            "pessoa_id": 1,
            "aluno": "Laura Rocha Barros",
            "ano": 2017,
            "titulo": "titulo 1 teste",
            "pais": "Brasil",
            "instituicao": "Universidade de São Paulo",
            "agencia_fomento": "Fundação de Amparo à Pesquisa do Estado de São Paulo",
            "tipo_orientacao": "ACADEMICO",
            "tipo_pesquisa": "mestrado"
        }
    },
    {
        "model": "models.Orientacao",
        "pk": 2,
        "fields": {
            "id": 2,
            "pessoa_id": 4,
            "aluno": "Kauã Oliveira Costa",
            "ano": 2018,
            "titulo": "titulo 2 teste",
            "pais": "Brasil",
            "instituicao": "Universidade de São Paulo",
            "agencia_fomento": "Fundação de Amparo à Pesquisa do Estado de São Paulo",
            "tipo_orientacao": "ACADEMICO",
            "tipo_pesquisa": "trabalho_de_conclusao_de_curso_graduacao"
        }
    },
    {
        "model": "models.Orientacao",
        "pk": 3,
        "fields": {
            "id": 3,
            "pessoa_id": 2,
            "aluno": "Evelyn Lima Araujo",
            "ano": 2013,
            "titulo": "titulo..teste 6,foo",
            "pais": "Brasil",
            "instituicao": "Universidade de São Paulo",
            "agencia_fomento": "Fundação de Amparo à Pesquisa do Estado de São Paulo",
            "tipo_orientacao": "ACADEMICO",
            "tipo_pesquisa": "doutorado"
        }
    },
    {
        "model": "models.Orientacao",
        "pk": 4,
        "fields": {
            "id": 4,
            "pessoa_id": 6,
            "aluno": "Edwin Caldera Carbajal",
            "ano": 2012,
            "titulo": "titulo 3",
            "pais": "Brasil",
            "instituicao": "Universidade de São Paulo",
            "agencia_fomento": "Fundação de Amparo à Pesquisa do Estado de São Paulo",
            "tipo_orientacao": "ACADEMICO",
            "tipo_pesquisa": "trabalho_de_conclusao_de_curso_graduacao"
        }
    },
    {
        "model": "models.Orientacao",
        "pk": 5,
        "fields": {
            "id": 5,
            "pessoa_id": 1,
            "aluno": "Leila Costa Correia",
            "ano": 2017,
            "titulo": "titulo,4,foo e de do da",
            "pais": "Espanha",
            "instituicao": "Universidade de São Paulo",
            "agencia_fomento": "Fundação de Amparo à Pesquisa do Estado de São Paulo",
            "tipo_orientacao": "ACADEMICO",
            "tipo_pesquisa": "trabalho_de_conclusao_de_curso_graduacao"
        }
    },
    {
        "model": "models.Orientacao",
        "pk": 6,
        "fields": {
            "id": 6,
            "pessoa_id": 3,
            "aluno": "James Angulo",
            "ano": 2017,
            "titulo": "titulo 5,bar",
            "pais": "Argélia",
            "instituicao": "Universidade de São Paulo",
            "agencia_fomento": "Fundação de Amparo à Pesquisa do Estado de São Paulo",
            "tipo_orientacao": "ACADEMICO",
            "tipo_pesquisa": "mestrado"
        }
    }
]