{
  "3656225530688946": "DCC",
  "1927611801056285": "DCC",
  "7931486543023117": "DCC",
  "2118391660819227": "DCC",
  "1225623517319669": "DCC",
  "0247990329725342": "DCC",
  "1047633546096022": "DCC",
  "9284531339856547": "DCC",
  "4575931307749163": "DCC",
  "1399158997660627": "DCC",
  "2934786440085983": "DCC",
  "5302472310971255": "DCC",
  "7750373154186324": "DCC",
  "2342739419247924": "DCC",
  "8571722708574643": "DCC",
  "3306150427973677": "DCC",
  "0131770792108992": "DCC",
  "0362417828475021": "DCC",
  "5416099300504556": "DCC",
  "0348490713417429": "DCC",
  "5618622435626525": "DCC",
  "2670485517671047": "DCC",
  "0620986273710878": "DCC",
  "0422812885426756": "DCC",
  "6906080263566007": "DCC",
  "0644408634493034": "DCC",
  "5251389003736909": "DCC",
  "6542043556427566": "DCC",
  "8548608291351316": "DCC",
  "1647118503085126": "DCC",
  "2240951178648368": "DCC",
  "9283304583756076": "DCC",
  "8775077428017258": "DCC",
  "2808213902627406": "DCC",
  "8455495596164984": "DCC",
  "5473948356552132": "DCC",
  "2443304092293827": "DCC",
  "4627360041573918": "DCC",
  "3174379270045864": "DCC",
  "4968717625206559": "MAE",
  "9189359969730039": "MAE",
  "4160385144442046": "MAE",
  "6645291537707770": "MAE",
  "1874644681647792": "MAE",
  "1843763100507469": "MAE",
  "7290364044451526": "MAE",
  "4197266977644156": "MAE",
  "8986105627998369": "MAE",
  "4488035486752251": "MAE",
  "9770136165399958": "MAE",
  "4167714163194354": "MAE",
  "3829307320268904": "MAE",
  "2197573378160298": "MAE",
  "5502172167494560": "MAE",
  "0446263630346407": "MAE",
  "7805423923220410": "MAE",
  "7791314287717914": "MAE",
  "6373116384647535": "MAE",
  "5430021088108855": "MAE",
  "6174901278278077": "MAE",
  "2947693375237766": "MAE",
  "2264376518383172": "MAE",
  "8881931568548501": "MAE",
  "6856828873812604": "MAE",
  "5517395183220582": "MAE",
  "8280771165693528": "MAE",
  "8422115514014109": "MAE",
  "2716011092234394": "MAE",
  "6707083961059124": "MAE",
  "2718343924989492": "MAE",
  "3012908001422868": "MAE",
  "1532548827466292": "MAE",
  "1244583687770774": "MAE",
  "4552581220981608": "MAE",
  "9799994124940260": "MAE",
  "6545544295853007": "MAE",
  "7608013990240863": "MAE",
  "8165895654064360": "MAE",
  "0850850150348845": "MAE",
  "0975898314511610": "MAE",
  "4317740498653115": "MAT",
  "6884084734880165": "MAT",
  "9839939072045732": "MAT",
  "9134120309868145": "MAT",
  "4822164054567444": "MAT",
  "1334333415248806": "MAT",
  "5298379223750213": "MAT",
  "3612359023677691": "MAT",
  "2422103751979129": "MAT",
  "4545775415233843": "MAT",
  "7522850820895210": "MAT",
  "7650178604363178": "MAT",
  "5650960768301921": "MAT",
  "1727582332230890": "MAT",
  "4595265210121698": "MAT",
  "6261615324975968": "MAT",
  "6924559566010266": "MAT",
  "6310330875239899": "MAT",
  "0814550345087037": "MAT",
  "7193492880677720": "MAT",
  "8580052002817169": "MAT",
  "1520212806910322": "MAT",
  "1244442414351450": "MAT",
  "1464247269026445": "MAT",
  "7364911888388101": "MAT",
  "3116237513868648": "MAT",
  "1606389825259677": "MAT",
  "4654251951434427": "MAT",
  "7500070840563045": "MAT",
  "1915297691969734": "MAT",
  "9848451552399145": "MAT",
  "4924243158075998": "MAT",
  "6912823669386029": "MAT",
  "6227659115867830": "MAT",
  "9171102073588628": "MAT",
  "9764244146941023": "MAT",
  "5563844615917020": "MAT",
  "3762450205090582": "MAT",
  "7193016375410106": "MAT",
  "3963038169664451": "MAT",
  "6279103178873169": "MAT",
  "2382469130424035": "MAT",
  "6876840066785728": "MAT",
  "6414101223818111": "MAT",
  "7541987739314374": "MAT",
  "9711211873693776": "MAT",
  "2597867777721638": "MAT",
  "8353907075646667": "MAT",
  "0393580291188665": "MAT",
  "5060961712956726": "MAT",
  "2281591530807032": "MAT",
  "4619328983024357": "MAT",
  "5220668843910824": "MAT",
  "9992418453955467": "MAT",
  "0964053090112695": "MAT",
  "7034382452298591": "MAT",
  "4183069998276255": "MAT",
  "0891714428111234": "MAT",
  "1318171263288733": "MAT",
  "4964214356525811": "MAT",
  "0294609067982327": "MAT",
  "5286034540519077": "MAT",
  "1344385349084972": "MAT",
  "7191150286119863": "MAT",
  "7886856633475996": "MAT",
  "4767103252579969": "MAT",
  "2185667313064989": "MAT",
  "3066990520731287": "MAT",
  "2628621250028497": "MAT",
  "9213713189738316": "MAT",
  "2869491387764118": "MAT",
  "9313578616889059": "MAT",
  "9060045633534022": "MAT",
  "8080571420519073": "MAT",
  "9074528435754216": "MAT",
  "0368187000548549": "MAT",
  "4159733067004447": "MAT",
  "3487250524564847": "MAT",
  "7902197542498193": "MAT",
  "7507242119255330": "MAT",
  "1600625913944459": "MAT",
  "2115528633747994": "MAT",
  "8035634297294419": "MAT",
  "2153527263061692": "MAT",
  "4577729860942705": "MAT",
  "2177374113919630": "MAT",
  "6765895362060524": "MAT",
  "4031361680529891": "MAT",
  "8236351869175514": "MAT",
  "4149882391730362": "MAP",
  "8644214878865621": "MAP",
  "2506136880977644": "MAP",
  "4517534884485194": "MAP",
  "7625751421942524": "MAP",
  "0647513129067496": "MAP",
  "4338630630485137": "MAP",
  "4804300167674691": "MAP",
  "0694302682822936": "MAP",
  "5658903073741596": "MAP",
  "6748364534679596": "MAP",
  "2612915149105321": "MAP",
  "9969385841747442": "MAP",
  "6419833437574297": "MAP",
  "9582404119292455": "MAP",
  "5181059029789860": "MAP",
  "9893531212718568": "MAP",
  "9681052469456395": "MAP",
  "6518215277080266": "MAP",
  "3469377550928789": "MAP",
  "7457186791833218": "MAP",
  "8872656701324553": "MAP",
  "6547630839036017": "MAP",
  "6790064280260422": "MAP",
  "1914965078179670": "MAP",
  "4110545446460055": "MAP",
  "1597520020384471": "MAP",
  "6218135906579844": "MAP",
  "7981328728299342": "MAP"
}
