[
    {
        "model": "models.Bancas",
        "pk": 1,
        "fields": {
            "id": 1,
            "aluno": "Tomás Araujo Oliveira",
            "ano": 1998,
            "titulo": "titulo 1 teste",
            "pais": "Brasil",
            "instituicao": "USP",
            "tipo_pesquisa": "tipo1",
            "participantes": [ 1 ]
        }
    },
    {
        "model": "models.Bancas",
        "pk": 2,
        "fields": {
            "id": 2,
            "aluno": "Gabrielly Fernandes Barros",
            "ano": 2011,
            "titulo": "titulo 2 teste",
            "pais": "Brasil",
            "instituicao": "Universidade de São Paulo",
            "tipo_pesquisa": "tipo1",
            "participantes": [
                1,
                3
            ]
        }
    },
    {
        "model": "models.Bancas",
        "pk": 3,
        "fields": {
            "id": 3,
            "aluno": "Luiza Goncalves Pinto",
            "ano": 2015,
            "titulo": "titulo 3",
            "pais": "Argélia",
            "instituicao": "Universidade de São Paulo",
            "tipo_pesquisa": "tipo2",
            "participantes": [
                5
            ]
        }
    },
    {
        "model": "models.Bancas",
        "pk": 4,
        "fields": {
            "id": 4,
            "aluno": "Aline Barros Santos",
            "ano": 2015,
            "titulo": "titulo,4,foo e de do da",
            "pais": "França",
            "instituicao": "Universidade de São Paulo",
            "tipo_pesquisa": "tipo1",
            "participantes": [
                2
            ]
        }
    },
    {
        "model": "models.Bancas",
        "pk": 5,
        "fields": {
            "id": 5,
            "aluno": "Gabrielly Cavalcanti Azevedo",
            "ano": 2018,
            "titulo": "titulo 5,bar",
            "pais": "França",
            "instituicao": "Universidade de São Paulo",
            "tipo_pesquisa": "tipo2",
            "participantes": [
                2
            ]
        }
    },
    {
        "model": "models.Bancas",
        "pk": 6,
        "fields": {
            "id": 6,
            "aluno": "Ryan Azevedo Souza",
            "ano": 2019,
            "titulo": "titulo..teste 6,foo",
            "pais": "Brasil",
            "instituicao": "Universidade de São Paulo",
            "tipo_pesquisa": "tipo2",
            "participantes": [
                5,
                3,
                6
            ]
        }
    }
]